<?xml version="1.0" encoding="UTF-8"?>
<svg width="32px" height="32px" viewBox="0 0 32 32" version="1.1" xmlns="http://www.w3.org/2000/svg" xmlns:xlink="http://www.w3.org/1999/xlink">
    <!-- Generator: Sketch 50.2 (55047) - http://www.bohemiancoding.com/sketch -->
    <title>icons/32/steam</title>
    <desc>Created with Sketch.</desc>
    <defs></defs>
    <g id="icons/32/steam" stroke="none" stroke-width="1" fill="none" fill-rule="evenodd" stroke-linecap="round">
        <path d="M17.25,12.0242192 C17.25,10.2711464 15.7613468,8.85 13.925,8.85 C12.0886532,8.85 10.6,10.2711464 10.6,12.0242192 C10.6,12.5977126 10.7593127,13.1356839 11.0379937,13.6" id="Oval-2" stroke="#FAA919" transform="translate(13.925000, 11.225000) rotate(-25.000000) translate(-13.925000, -11.225000) "></path>
        <path d="M9.70002546,18.3470825 C9.70002546,20.9704351 12.1330997,23.0970825 15.1344488,23.0970825 C16.7520097,23.0970825 17.8701757,22.7517588 18.8656925,21.7714967" id="Oval-2" stroke="#FAA919" transform="translate(14.282859, 20.722083) rotate(1.000000) translate(-14.282859, -20.722083) "></path>
        <path d="M14.45,16.632713 C15.0178478,19.7705862 17.7549742,22.15 21.0459486,22.15 C24.7484939,22.15 27.75,19.1382303 27.75,15.4230242 C27.75,12.2012179 25.4927886,9.50841436 22.4786221,8.85" id="Oval-2" stroke="#FAA919" transform="translate(21.100000, 15.500000) rotate(-43.000000) translate(-21.100000, -15.500000) "></path>
        <path d="M6.87688679,14.8 L12.55,14.8" id="Line" stroke="#FAA919"></path>
        <path d="M4.11279297,18.2429199 L9.77246094,18.2429199" id="Line" stroke="#FAA919"></path>
    </g>
</svg>