{
	"ProjectName": "meter-reading",
	"ProjectPath": "/Users/matshwenyego/projects/meter-reading",
	"InitializationTime": "2018-07-11-10-08-11",
	"LastConfigurationTime": "2018-07-11-10-06-42",
	"LastNPMInstallTime": "",
	"FrontendLastBuildTime": "",
	"LastPublishTime": "",
	"BackendLastSyncTime": "2018-07-11-10-06-55",
	"BackendLastBuildTime": "",
	"BackendLastPushTime": "",
	"BackendProjectID": "23f68725-4b79-435d-b913-4c727443a121",
	"BackendProjectName": "mr-app",
	"BackendProjectConsoleUrl": "https://console.aws.amazon.com/mobilehub/home#/23f68725-4b79-435d-b913-4c727443a121/build",
	"BackendProjectCreationTime": "2018-06-14T07:48:20.379Z",
	"BackendProjectLastUpdatedTime": "2018-07-10T12:38:13.297Z",
	"Framework": "react-native",
	"BackendLastSyncToDevTime": "2018-07-11-10-06-55"
}